<svg width="49" height="80" viewBox="0 0 49 80" fill="none" xmlns="http://www.w3.org/2000/svg">
<path fill-rule="evenodd" clip-rule="evenodd" d="M12.6485 76.1984C12.6485 78.2076 12.3691 79.0797 13.2667 79.0797H35.3133C36.211 79.0797 35.9314 78.2076 35.9314 76.1984C35.9314 75.7242 35.788 75.581 35.3133 75.581H13.2667C12.7919 75.581 12.6485 75.7242 12.6485 76.1984Z" fill="black"/>
<path fill-rule="evenodd" clip-rule="evenodd" d="M32.0163 34.0081C32.0163 36.0177 35.1987 35.4488 37.991 35.4488L39.046 38.1C39.828 40.0887 40.499 39.7264 44.173 40.5939C45.551 40.9193 48.5 42.0526 48.5 39.9764C48.5 38.446 43.64 38.2718 41.983 37.6359C41.111 37.3014 40.765 35.9926 40.289 34.8005C39.311 32.3514 38.25 32.9789 33.0463 32.9789C32.5659 32.9789 32.0161 33.5281 32.0161 34.008L32.0163 34.0081Z" fill="url(#paint0_linear)"/>
<path fill-rule="evenodd" clip-rule="evenodd" d="M16.1508 61.9972C16.1508 57.5004 15.3641 52.7334 18.6152 50.2583C24.07 46.1057 32.4282 49.3661 32.4282 55.2057C32.4282 60.2508 33.2529 64.2718 29.9331 66.9139C26.6536 69.5239 21.8393 69.3493 18.7344 67.0312C17.5085 66.1159 16.1507 64.0447 16.1507 61.9972H16.1508ZM11.2058 55.2056C11.2058 59.1394 10.7067 63.2003 12.4366 66.7359C12.8029 67.4846 13.032 67.8291 13.5587 68.4964C17.5527 73.556 24.4667 74.7063 29.6666 72.6159C33.6014 71.0339 37.373 66.8107 37.373 61.997C37.373 54.8175 38.223 51.8906 33.5109 47.1267C29.9894 43.5666 23.4077 42.7793 18.9124 44.5866C17.2889 45.2392 16.3314 46.0344 15.1157 46.9684C13.1167 48.5044 11.2057 52.294 11.2057 55.2054L11.2058 55.2056Z" fill="url(#paint1_linear)"/>
<path fill-rule="evenodd" clip-rule="evenodd" d="M23.7748 29.8921C27.4917 29.8921 28.5027 36.4439 25.4381 38.5519C22.7624 40.3923 19.7962 36.9322 20.7278 33.0239C21.0358 31.732 22.1728 29.8921 23.7748 29.8921ZM16.5633 34.4197C16.5633 38.6688 19.6099 42.8577 23.5689 42.8577C30.8673 42.8577 33.339 33.7872 29.1649 28.6244C24.6882 23.0873 16.5633 27.0118 16.5633 34.4197Z" fill="url(#paint2_linear)"/>
<path fill-rule="evenodd" clip-rule="evenodd" d="M19.6536 18.9845C19.6536 14.764 28.5133 14.8979 28.5133 18.9845C28.5133 22.9697 19.6536 22.6501 19.6536 18.9845ZM15.7388 18.367C15.7388 20.7835 16.4589 22.5357 18.4112 23.9298C24.2693 28.1132 32.4283 24.51 32.4283 19.1903C32.4283 15.8291 30.2626 13.5642 27.6655 12.6284C24.5613 11.5098 20.8655 11.8156 18.3815 13.8038C17.2438 14.7146 15.7386 16.4074 15.7386 18.3671L15.7388 18.367Z" fill="url(#paint3_linear)"/>
<path fill-rule="evenodd" clip-rule="evenodd" d="M8.32151 24.9529C8.32151 30.4694 8.30941 29.5482 13.9102 31.5191C14.977 31.8945 16.151 32.2839 16.151 30.5097C16.151 29.3378 11.972 28.2663 10.9999 28.04L10.6906 24.4387C10.4159 23.2017 9.60491 22.8915 8.66941 22.3416C7.73871 21.7945 7.00161 21.3456 6.09381 20.798C5.29741 20.3178 4.31041 19.6136 3.37651 19.3962C0.822307 21.6137 3.42661 21.6789 8.32151 24.9529Z" fill="url(#paint4_linear)"/>
<path fill-rule="evenodd" clip-rule="evenodd" d="M0.0795975 41.211C0.0795975 41.7669 0.177899 41.7786 0.285599 42.24C2.3652 42.7373 4.1562 41.6362 7.0639 40.7783C9.0421 40.1947 9.4494 39.1795 10.1756 36.0659C11.2241 36.0659 12.3092 35.9352 13.4162 35.8042C15.2351 35.5888 15.9447 35.647 15.9447 34.2137C15.9447 32.5595 12.5918 33.5132 11.2057 33.5962C8.1459 33.7794 8.4655 33.7163 7.6278 36.1968C6.6871 38.9829 7.0799 38.3708 2.0048 39.8415C1.1369 40.0929 0.0793991 40.1996 0.0793991 41.2112L0.0795975 41.211Z" fill="url(#paint5_linear)"/>
<path fill-rule="evenodd" clip-rule="evenodd" d="M31.6042 38.5356C31.6042 39.4332 33.0249 40.027 33.6528 40.3997C34.4857 40.8939 35.2408 41.3548 36.137 41.8285C36.137 45.2872 34.7345 45.7611 36.91 47.6419L39.965 50.3533C40.715 50.9335 40.937 51.7072 41.906 51.7072C42.403 51.7072 43.143 50.9679 43.143 50.4723C43.143 49.677 38.931 46.4207 38.198 45.3272C38.279 44.3492 38.518 43.1868 38.686 42.087C38.964 40.2677 37.761 40.0741 35.146 38.4968C34.2746 37.9712 31.6044 36.2309 31.6044 38.5356H31.6042Z" fill="url(#paint6_linear)"/>
<path fill-rule="evenodd" clip-rule="evenodd" d="M36.55 27.422L32.8049 29.0328C32.099 29.3142 31.4943 29.5375 31.5062 30.2727C31.5488 32.9078 35.4334 30.4197 37.495 29.6013C39.259 28.9008 38.596 29.1038 38.816 28.6569L39.022 24.1291C40.052 23.5845 44.585 20.548 44.585 19.8072C44.585 19.11 44.317 18.5703 43.685 18.4366C42.903 18.2711 40.503 20.2589 39.391 20.9991C38.839 21.3668 38.628 21.5738 38.073 21.9465C37.527 22.3132 37.209 22.4213 36.874 23.0127C36.3 24.0267 36.549 25.9902 36.549 27.422H36.55Z" fill="url(#paint7_linear)"/>
<path fill-rule="evenodd" clip-rule="evenodd" d="M10.5877 45.9446C10.5877 46.5289 9.5867 47.2568 9.1965 47.6421L6.26909 50.9153C6.07009 51.3764 6.1985 52.5304 7.4971 52.5304C8.4028 52.5304 11.2371 48.8872 11.8725 48.2569C14.2549 45.8941 12.4421 45.2921 12.4421 42.2402C12.997 42.0922 13.1912 41.898 13.6232 41.5676C15.4127 40.1986 15.9274 40.3302 16.769 38.7415C16.026 37.3389 15.6783 37.1139 14.4362 38.0578C11.8234 40.043 9.4588 40.7703 9.9097 42.6883C10.1147 43.5606 10.5877 45.0999 10.5877 45.9448V45.9446Z" fill="url(#paint8_linear)"/>
<path fill-rule="evenodd" clip-rule="evenodd" d="M30.9861 0.667914C31.0107 1.7728 31.6346 3.57788 31.9446 4.64987C32.354 6.06476 32.7176 7.2839 33.0465 8.69436C31.947 10.3345 29.7498 11.5345 29.7498 13.0163C29.7498 13.5183 30.2277 14.0453 30.9861 14.0453C31.7748 14.0453 34.3001 10.9037 35.0675 10.09C36.196 8.89367 35.0747 6.77399 34.2381 3.79971C34.0651 3.18488 33.8435 2.42705 33.6456 1.71619C33.0591 -0.390294 32.4166 -0.324795 30.9861 0.668062V0.667914Z" fill="url(#paint9_linear)"/>
<path fill-rule="evenodd" clip-rule="evenodd" d="M12.4423 9.10609C12.4423 9.77975 13.9879 11.3645 14.4543 11.8299C15.3105 12.6842 16.1148 14.2513 17.1813 14.2513C17.9989 14.2513 18.2115 13.4508 18.2115 12.8106C18.2115 12.4338 17.0245 11.1038 16.7208 10.8009C15.7859 9.86837 15.5921 9.35327 14.9148 8.90041L17.1586 1.85393C17.4754 0.662201 16.7834 0.149027 16.1246 0.10131C14.8114 0.00632209 14.3714 2.38859 13.8845 4.16685C13.6499 5.02352 13.4029 5.61835 13.1473 6.51755C12.9523 7.20336 12.4421 8.58447 12.4421 9.10609H12.4423Z" fill="url(#paint10_linear)"/>
<path fill-rule="evenodd" clip-rule="evenodd" d="M28.1017 8.28222C27.9048 8.57593 27.748 8.83882 27.5104 9.13282C25.815 11.2304 27.6575 11.7809 27.6897 11.7809C28.9515 11.7809 30.9864 8.86697 30.9864 7.87071C30.9864 7.43044 28.2739 4.42727 27.3078 4.48017C26.3204 4.53426 25.7847 5.51171 26.3071 6.34719C26.763 7.07657 27.6024 7.53728 28.1018 8.28222H28.1017Z" fill="url(#paint11_linear)"/>
<path fill-rule="evenodd" clip-rule="evenodd" d="M17.3871 8.28212C17.3871 8.70964 18.4262 9.8212 18.7394 10.2243C19.1093 10.7002 19.8325 11.7808 20.4777 11.7808C21.1617 11.7808 21.4683 11.0097 21.714 10.546C21.4955 9.60929 20.7619 9.01313 20.2717 8.28212C21.138 6.98992 23.1712 6.22438 21.8716 4.84283L21.3019 4.37189C20.092 4.65344 19.7555 5.19196 18.9838 5.96668C18.3786 6.57411 17.3871 7.21739 17.3871 8.28212Z" fill="url(#paint12_linear)"/>
<defs>
<linearGradient id="paint0_linear" x1="32.0161" y1="37.0512" x2="48.5" y2="37.0512" gradientUnits="userSpaceOnUse">
<stop stop-color="#AE5A00"/>
<stop offset="1" stop-color="#EA7900"/>
</linearGradient>
<linearGradient id="paint1_linear" x1="11.139" y1="58.6278" x2="37.433" y2="58.6278" gradientUnits="userSpaceOnUse">
<stop stop-color="#AE5A00"/>
<stop offset="1" stop-color="#EA7900"/>
</linearGradient>
<linearGradient id="paint2_linear" x1="16.5633" y1="34.4381" x2="31.1915" y2="34.4381" gradientUnits="userSpaceOnUse">
<stop stop-color="#AE5A00"/>
<stop offset="1" stop-color="#EA7900"/>
</linearGradient>
<linearGradient id="paint3_linear" x1="15.7386" y1="18.8706" x2="32.4283" y2="18.8706" gradientUnits="userSpaceOnUse">
<stop stop-color="#AE5A00"/>
<stop offset="1" stop-color="#EA7900"/>
</linearGradient>
<linearGradient id="paint4_linear" x1="2.37921" y1="25.6172" x2="16.151" y2="25.6172" gradientUnits="userSpaceOnUse">
<stop stop-color="#AE5A00"/>
<stop offset="1" stop-color="#EA7900"/>
</linearGradient>
<linearGradient id="paint5_linear" x1="0.0793991" y1="37.806" x2="15.9447" y2="37.806" gradientUnits="userSpaceOnUse">
<stop stop-color="#AE5A00"/>
<stop offset="1" stop-color="#EA7900"/>
</linearGradient>
<linearGradient id="paint6_linear" x1="31.6042" y1="44.5395" x2="43.143" y2="44.5395" gradientUnits="userSpaceOnUse">
<stop stop-color="#AE5A00"/>
<stop offset="1" stop-color="#EA7900"/>
</linearGradient>
<linearGradient id="paint7_linear" x1="31.506" y1="24.9394" x2="44.585" y2="24.9394" gradientUnits="userSpaceOnUse">
<stop stop-color="#AE5A00"/>
<stop offset="1" stop-color="#EA7900"/>
</linearGradient>
<linearGradient id="paint8_linear" x1="6.194" y1="45.0085" x2="16.769" y2="45.0085" gradientUnits="userSpaceOnUse">
<stop stop-color="#AE5A00"/>
<stop offset="1" stop-color="#EA7900"/>
</linearGradient>
<linearGradient id="paint9_linear" x1="29.7498" y1="7.02264" x2="35.544" y2="7.02264" gradientUnits="userSpaceOnUse">
<stop stop-color="#AE5A00"/>
<stop offset="1" stop-color="#EA7900"/>
</linearGradient>
<linearGradient id="paint10_linear" x1="12.4421" y1="7.17494" x2="18.2115" y2="7.17494" gradientUnits="userSpaceOnUse">
<stop stop-color="#AE5A00"/>
<stop offset="1" stop-color="#EA7900"/>
</linearGradient>
<linearGradient id="paint11_linear" x1="26.1034" y1="8.13021" x2="30.9864" y2="8.13021" gradientUnits="userSpaceOnUse">
<stop stop-color="#AE5A00"/>
<stop offset="1" stop-color="#EA7900"/>
</linearGradient>
<linearGradient id="paint12_linear" x1="17.3871" y1="8.07636" x2="22.2942" y2="8.07636" gradientUnits="userSpaceOnUse">
<stop stop-color="#AE5A00"/>
<stop offset="1" stop-color="#EA7900"/>
</linearGradient>
</defs>
</svg>
