<svg width="150" height="80" viewBox="0 0 150 80" fill="none" xmlns="http://www.w3.org/2000/svg">
<path fill-rule="evenodd" clip-rule="evenodd" d="M111.882 52.7363H129.808C131.735 52.7363 131.708 55.102 130.145 55.749C129.418 56.0498 128.772 56.2624 128.033 56.5203L115.715 60.8872C110.237 62.7703 109.964 68.6406 112.32 71.2324C113.291 72.3005 114.694 73.111 116.209 73.111H135.783V68.1717H118.475C117.249 68.1717 116.003 67.9285 116.003 66.731C116.003 65.0122 118.832 64.4423 121.128 63.618C123.145 62.8939 125.332 62.178 127.335 61.3801C128.28 61.0042 129.323 60.6264 130.347 60.2718C131.353 59.9233 132.638 59.5497 133.432 59.0312C138.279 55.8638 137.365 47.5912 130.014 47.5912H111.882V52.7363Z" fill="white"/>
<path fill-rule="evenodd" clip-rule="evenodd" d="M14.8351 51.9131V73.111H20.1923V53.3537C20.1923 52.8795 20.3356 52.7363 20.8105 52.7363H30.0824C32.3988 52.7363 34.4307 53.5024 35.5975 55.048C36.3744 56.0768 36.6757 57.5182 36.6757 58.9104V73.111H42.0328V58.9104C42.0328 51.4613 37.082 47.5912 29.8762 47.5912H18.1317C15.5667 47.5912 14.835 49.3529 14.835 51.9131H14.8351Z" fill="white"/>
<path fill-rule="evenodd" clip-rule="evenodd" d="M52.5414 47.5917H49.0386V52.7368H52.5414V65.4966C52.5414 74.3725 58.9256 73.1114 64.698 73.1114V68.378C61.3875 68.378 57.8985 69.0026 57.8985 65.4966V52.7368H64.9041V47.5917H57.8985V41.6234H52.5414V47.5917Z" fill="white"/>
<path fill-rule="evenodd" clip-rule="evenodd" d="M76.6486 76.1985C76.6486 78.2077 76.3692 79.0798 77.2668 79.0798H99.3134C100.211 79.0798 99.9315 78.2077 99.9315 76.1985C99.9315 75.7243 99.7881 75.5811 99.3134 75.5811H77.2668C76.792 75.5811 76.6486 75.7243 76.6486 76.1985Z" fill="white"/>
<path fill-rule="evenodd" clip-rule="evenodd" d="M144.643 48.2086V73.111H150V47.5912H145.261C144.786 47.5912 144.643 47.7345 144.643 48.2087V48.2086Z" fill="white"/>
<path fill-rule="evenodd" clip-rule="evenodd" d="M144.643 38.5362V44.093H150V38.5362C150 37.491 148.107 37.9187 145.261 37.9187C144.786 37.9187 144.643 38.0619 144.643 38.5362Z" fill="white"/>
<path fill-rule="evenodd" clip-rule="evenodd" d="M0 48.2086V73.111H5.35714V47.5912H0.618217C0.143464 47.5912 0 47.7345 0 48.2087V48.2086Z" fill="white"/>
<path fill-rule="evenodd" clip-rule="evenodd" d="M0 36.4017V48.4975H5.35714V36.4017C5.35714 34.1265 3.46466 35.0577 0.618217 35.0577C0.143464 35.0577 0 35.3693 0 36.4017Z" fill="white"/>
<path fill-rule="evenodd" clip-rule="evenodd" d="M96.0163 34.0081C96.0163 36.0177 99.1987 35.4488 101.991 35.4488L103.046 38.1C103.828 40.0887 104.499 39.7264 108.173 40.5939C109.551 40.9193 112.5 42.0526 112.5 39.9764C112.5 38.446 107.64 38.2718 105.983 37.6359C105.111 37.3014 104.765 35.9926 104.289 34.8005C103.311 32.3514 102.25 32.9789 97.0463 32.9789C96.5659 32.9789 96.0161 33.5281 96.0161 34.008L96.0163 34.0081Z" fill="white"/>
<path fill-rule="evenodd" clip-rule="evenodd" d="M80.151 61.9972C80.151 57.5004 79.3643 52.7334 82.6154 50.2583C88.0702 46.1057 96.4284 49.3661 96.4284 55.2057C96.4284 60.2508 97.2531 64.2718 93.9333 66.9139C90.6538 69.5239 85.8395 69.3493 82.7346 67.0312C81.5087 66.1159 80.1509 64.0447 80.1509 61.9972H80.151ZM75.206 55.2056C75.206 59.1394 74.7069 63.2003 76.4368 66.7359C76.8031 67.4846 77.0322 67.8291 77.5589 68.4964C81.5529 73.556 88.4669 74.7063 93.6668 72.6159C97.6016 71.0339 101.373 66.8107 101.373 61.997C101.373 54.8175 102.223 51.8906 97.5111 47.1267C93.9896 43.5666 87.4079 42.7793 82.9126 44.5866C81.2891 45.2392 80.3316 46.0344 79.1159 46.9684C77.1169 48.5044 75.2059 52.294 75.2059 55.2054L75.206 55.2056Z" fill="white"/>
<path fill-rule="evenodd" clip-rule="evenodd" d="M87.775 29.8922C91.4919 29.8922 92.5029 36.444 89.4383 38.552C86.7626 40.3924 83.7964 36.9323 84.728 33.024C85.036 31.7321 86.173 29.8922 87.775 29.8922ZM80.5635 34.4198C80.5635 38.6689 83.6101 42.8578 87.5691 42.8578C94.8675 42.8578 97.3392 33.7873 93.1651 28.6245C88.6884 23.0874 80.5635 27.0119 80.5635 34.4198Z" fill="white"/>
<path fill-rule="evenodd" clip-rule="evenodd" d="M83.6538 18.9845C83.6538 14.764 92.5135 14.8979 92.5135 18.9845C92.5135 22.9697 83.6538 22.6501 83.6538 18.9845ZM79.739 18.367C79.739 20.7835 80.4591 22.5357 82.4114 23.9298C88.2695 28.1132 96.4285 24.51 96.4285 19.1903C96.4285 15.8291 94.2628 13.5642 91.6657 12.6284C88.5615 11.5098 84.8657 11.8156 82.3817 13.8038C81.244 14.7146 79.7388 16.4074 79.7388 18.3671L79.739 18.367Z" fill="white"/>
<path fill-rule="evenodd" clip-rule="evenodd" d="M72.3217 24.9529C72.3217 30.4694 72.3096 29.5482 77.9104 31.5191C78.9772 31.8945 80.1512 32.2839 80.1512 30.5097C80.1512 29.3378 75.9722 28.2663 75.0001 28.04L74.6908 24.4387C74.4161 23.2017 73.6051 22.8915 72.6696 22.3416C71.7389 21.7945 71.0018 21.3456 70.094 20.798C69.2976 20.3178 68.3106 19.6136 67.3767 19.3962C64.8225 21.6137 67.4268 21.6789 72.3217 24.9529Z" fill="white"/>
<path fill-rule="evenodd" clip-rule="evenodd" d="M64.0798 41.2111C64.0798 41.767 64.1781 41.7787 64.2858 42.2401C66.3654 42.7374 68.1564 41.6363 71.0641 40.7784C73.0423 40.1948 73.4496 39.1796 74.1758 36.066C75.2243 36.066 76.3094 35.9353 77.4164 35.8043C79.2353 35.5889 79.9449 35.6471 79.9449 34.2138C79.9449 32.5596 76.592 33.5133 75.2059 33.5963C72.1461 33.7795 72.4657 33.7164 71.628 36.1969C70.6873 38.983 71.0801 38.3709 66.005 39.8416C65.1371 40.093 64.0796 40.1997 64.0796 41.2113L64.0798 41.2111Z" fill="white"/>
<path fill-rule="evenodd" clip-rule="evenodd" d="M95.604 38.5355C95.604 39.4331 97.0247 40.0269 97.6526 40.3996C98.4855 40.8938 99.2406 41.3547 100.137 41.8284C100.137 45.2871 98.7343 45.761 100.91 47.6418L103.965 50.3532C104.715 50.9334 104.937 51.7071 105.906 51.7071C106.403 51.7071 107.143 50.9678 107.143 50.4722C107.143 49.6769 102.931 46.4206 102.198 45.3271C102.279 44.3491 102.518 43.1867 102.686 42.0869C102.964 40.2676 101.761 40.074 99.1458 38.4967C98.2744 37.9711 95.6042 36.2308 95.6042 38.5355H95.604Z" fill="white"/>
<path fill-rule="evenodd" clip-rule="evenodd" d="M100.55 27.422L96.8047 29.0328C96.0988 29.3142 95.4941 29.5375 95.506 30.2727C95.5486 32.9078 99.4332 30.4197 101.495 29.6013C103.259 28.9008 102.596 29.1038 102.816 28.6569L103.022 24.1291C104.052 23.5845 108.585 20.548 108.585 19.8072C108.585 19.11 108.317 18.5703 107.685 18.4366C106.903 18.2711 104.503 20.2589 103.391 20.9991C102.839 21.3668 102.628 21.5738 102.073 21.9465C101.527 22.3132 101.209 22.4213 100.874 23.0127C100.3 24.0267 100.549 25.9902 100.549 27.422H100.55Z" fill="white"/>
<path fill-rule="evenodd" clip-rule="evenodd" d="M74.5876 45.9446C74.5876 46.5289 73.5866 47.2568 73.1964 47.6421L70.269 50.9153C70.07 51.3764 70.1984 52.5304 71.497 52.5304C72.4027 52.5304 75.237 48.8872 75.8724 48.2569C78.2548 45.8941 76.442 45.2921 76.442 42.2402C76.9969 42.0922 77.1911 41.898 77.6231 41.5676C79.4126 40.1986 79.9273 40.3302 80.7689 38.7415C80.0259 37.3389 79.6782 37.1139 78.4361 38.0578C75.8233 40.043 73.4587 40.7703 73.9096 42.6883C74.1146 43.5606 74.5876 45.0999 74.5876 45.9448V45.9446Z" fill="white"/>
<path fill-rule="evenodd" clip-rule="evenodd" d="M94.9863 0.667899C95.0109 1.77278 95.6348 3.57786 95.9448 4.64985C96.3542 6.06474 96.7178 7.28388 97.0467 8.69434C95.9472 10.3345 93.75 11.5345 93.75 13.0163C93.75 13.5183 94.2279 14.0453 94.9863 14.0453C95.775 14.0453 98.3003 10.9037 99.0677 10.09C100.196 8.89365 99.0749 6.77397 98.2383 3.79969C98.0653 3.18486 97.8437 2.42703 97.6458 1.71617C97.0593 -0.390309 96.4168 -0.32481 94.9863 0.668047V0.667899Z" fill="white"/>
<path fill-rule="evenodd" clip-rule="evenodd" d="M76.4421 9.10604C76.4421 9.7797 77.9877 11.3645 78.4541 11.8299C79.3103 12.6842 80.1146 14.2513 81.1811 14.2513C81.9987 14.2513 82.2113 13.4508 82.2113 12.8106C82.2113 12.4338 81.0243 11.1038 80.7206 10.8009C79.7857 9.86832 79.5919 9.35322 78.9146 8.90036L81.1584 1.85388C81.4752 0.662156 80.7832 0.148982 80.1244 0.101265C78.8112 0.00627631 78.3712 2.38854 77.8843 4.1668C77.6497 5.02347 77.4027 5.6183 77.1471 6.5175C76.9521 7.20331 76.4419 8.58442 76.4419 9.10604H76.4421Z" fill="white"/>
<path fill-rule="evenodd" clip-rule="evenodd" d="M92.1018 8.28223C91.9049 8.57594 91.7481 8.83883 91.5105 9.13283C89.8151 11.2304 91.6576 11.7809 91.6898 11.7809C92.9516 11.7809 94.9865 8.86698 94.9865 7.87072C94.9865 7.43045 92.274 4.42728 91.3079 4.48018C90.3205 4.53427 89.7848 5.51172 90.3072 6.3472C90.7631 7.07658 91.6025 7.53729 92.1019 8.28223H92.1018Z" fill="white"/>
<path fill-rule="evenodd" clip-rule="evenodd" d="M81.3872 8.28218C81.3872 8.7097 82.4263 9.82126 82.7395 10.2244C83.1094 10.7003 83.8326 11.7809 84.4778 11.7809C85.1618 11.7809 85.4684 11.0098 85.7141 10.5461C85.4956 9.60935 84.762 9.01319 84.2718 8.28218C85.1381 6.98998 87.1713 6.22444 85.8717 4.84289L85.302 4.37195C84.0921 4.6535 83.7556 5.19202 82.9839 5.96674C82.3787 6.57417 81.3872 7.21745 81.3872 8.28218Z" fill="white"/>
</svg>
